{
    "content": [
        {
            "id": "21000025550000000040_17",
            "lotStatus": "APPLICATIONS_SUBMISSION",
            "biddType": {
                "code": "229FZ",
                "name": "Реализация имущества должников"
            },
            "biddForm": {
                "code": "EA",
                "name": "Электронный аукцион"
            },
            "lotName": "Нежилое помещение, площадью 22,9 кв. м, расположенное по адресу: Чувашская Республика, Чебоксарский район, Синьяльское сельское поселение, д. Аркасы, ул. Садовая, д. 35 А, пом. 7, кадастровый номер 21:02:010510:988",
            "lotDescription": "Нежилое помещение, площадью 22,9 кв. м, расположенное по адресу: Чувашская Республика, Чебоксарский район, Синьяльское сельское поселение, д. Аркасы, ул. Садовая, д. 35 А, пом. 7, кадастровый номер 21:02:010510:988",
            "priceMin": 240833.0,
            "biddEndTime": "2022-08-01T14:00:00.000+00:00",
            "lotImages": [
                "62c7f196e58d230a43f27248"
            ],
            "characteristics": [
                {
                    "characteristicValue": 22.9,
                    "name": "Общая площадь",
                    "code": "totalAreaRealty",
                    "unit": {
                        "code": "081",
                        "name": "Квадратный метр общей площади",
                        "symbol": "м^2 общ. пл"
                    },
                    "type": "Decimal"
                },
                {
                    "name": "Общие сведения об ограничениях и обременениях ",
                    "code": "restrictionsEncumbrances",
                    "type": "Text(500)"
                },
                {
                    "name": "Вид ограничений и обременений",
                    "code": "typeRestrictionsEncumbrances",
                    "type": "Text(100)"
                },
                {
                    "name": "Кадастровая стоимость ",
                    "code": "cadastralValue",
                    "type": "Money"
                },
                {
                    "name": "Назначение нежилого помещения",
                    "code": "typeNolivingQuarters",
                    "type": "Text(500)"
                },
                {
                    "characteristicValue": "21:02:010510:988",
                    "name": "Кадастровый номер объекта недвижимости (здания, сооружения), в пределах которого расположено помещение",
                    "code": "cadastralNumberObjectRealty",
                    "type": "Text(20)"
                },
                {
                    "name": "Расположение в пределах объекта недвижимости (этажа, части этажа, нескольких этажей)",
                    "code": "locationObjectRealty",
                    "type": "Text(100)"
                },
                {
                    "characteristicValue": "21:02:010510:988",
                    "name": "Кадастровый номер",
                    "code": "cadastralNumberRealty",
                    "type": "Text(20)"
                },
                {
                    "name": "Год ввода в эксплуатацию",
                    "code": "yearCommissioning",
                    "type": "Text(20)"
                }
            ],
            "currencyCode": "643",
            "etpCode": "ETP_TEKTORG",
            "subjectRFCode": "21",
            "category": {
                "code": "11",
                "name": "Нежилые помещения"
            },
            "createDate": "2022-07-07T13:28:06.308+00:00",
            "timeZoneName": "МСК",
            "timezoneOffset": "180",
            "hasAppeals": false,
            "isStopped": false
        },
        {
            "id": "21000025550000000040_12",
            "lotStatus": "APPLICATIONS_SUBMISSION",
            "biddType": {
                "code": "229FZ",
                "name": "Реализация имущества должников"
            },
            "biddForm": {
                "code": "EA",
                "name": "Электронный аукцион"
            },
            "lotName": "Нежилое помещение, площадью 21,90 кв. м, расположенное по адресу: Чувашская Республика, г. Чебоксары, ул. Ленинского Комсомола, д. 23, корп. 3, машино-место №34, кадастровый номер 21:01:030310:4500",
            "lotDescription": "Нежилое помещение, площадью 21,90 кв. м, расположенное по адресу: Чувашская Республика, г. Чебоксары, ул. Ленинского Комсомола, д. 23, корп. 3, машино-место №34, кадастровый номер 21:01:030310:4500",
            "priceMin": 417500.0,
            "biddEndTime": "2022-08-01T14:00:00.000+00:00",
            "lotImages": [
                "62c7ea4a90c36e63fec0ebd2"
            ],
            "characteristics": [
                {
                    "characteristicValue": 21.9,
                    "name": "Общая площадь",
                    "code": "totalAreaRealty",
                    "unit": {
                        "code": "081",
                        "name": "Квадратный метр общей площади",
                        "symbol": "м^2 общ. пл"
                    },
                    "type": "Decimal"
                },
                {
                    "name": "Общие сведения об ограничениях и обременениях ",
                    "code": "restrictionsEncumbrances",
                    "type": "Text(500)"
                },
                {
                    "name": "Вид ограничений и обременений",
                    "code": "typeRestrictionsEncumbrances",
                    "type": "Text(100)"
                },
                {
                    "name": "Кадастровая стоимость ",
                    "code": "cadastralValue",
                    "type": "Money"
                },
                {
                    "name": "Назначение нежилого помещения",
                    "code": "typeNolivingQuarters",
                    "type": "Text(500)"
                },
                {
                    "characteristicValue": "21:01:030310:4500",
                    "name": "Кадастровый номер объекта недвижимости (здания, сооружения), в пределах которого расположено помещение",
                    "code": "cadastralNumberObjectRealty",
                    "type": "Text(20)"
                },
                {
                    "name": "Расположение в пределах объекта недвижимости (этажа, части этажа, нескольких этажей)",
                    "code": "locationObjectRealty",
                    "type": "Text(100)"
                },
                {
                    "characteristicValue": "21:01:030310:4500",
                    "name": "Кадастровый номер",
                    "code": "cadastralNumberRealty",
                    "type": "Text(20)"
                },
                {
                    "name": "Год ввода в эксплуатацию",
                    "code": "yearCommissioning",
                    "type": "Text(20)"
                }
            ],
            "currencyCode": "643",
            "etpCode": "ETP_TEKTORG",
            "subjectRFCode": "21",
            "category": {
                "code": "11",
                "name": "Нежилые помещения"
            },
            "createDate": "2022-07-07T13:28:06.308+00:00",
            "timeZoneName": "МСК",
            "timezoneOffset": "180",
            "hasAppeals": false,
            "isStopped": false
        }
    ],
    "pageable": {
        "sort": {
            "empty": true,
            "sorted": false,
            "unsorted": true
        },
        "offset": 250,
        "pageNumber": 25,
        "pageSize": 10,
        "paged": true,
        "unpaged": false
    },
    "categoryFacet": [
        {
            "_id": "11",
            "count": 252
        }
    ],
    "last": true,
    "totalElements": 252,
    "totalPages": 26,
    "size": 10,
    "number": 25,
    "sort": {
        "empty": true,
        "sorted": false,
        "unsorted": true
    },
    "first": false,
    "numberOfElements": 2,
    "empty": false
}