{
    "content": [
        {
            "id": "21000025550000000031_17",
            "lotStatus": "APPLICATIONS_SUBMISSION",
            "biddType": {
                "code": "229FZ",
                "name": "Реализация имущества должников"
            },
            "biddForm": {
                "code": "EA",
                "name": "Электронный аукцион"
            },
            "lotName": "Нежилое помещение, площадью 20,20 кв. м, расположенное по адресу: Чувашская Республика, г. Новочебоксарск, гаражный кооператив № 7 \"Прогресс\", гараж-бокс № 665, кадастровый номер 21:02:010905:1073",
            "lotDescription": "Нежилое помещение, площадью 20,20 кв. м, расположенное по адресу: Чувашская Республика, г. Новочебоксарск, гаражный кооператив № 7 \"Прогресс\", гараж-бокс № 665, кадастровый номер 21:02:010905:1073",
            "priceMin": 133000.0,
            "biddEndTime": "2022-07-13T14:00:00.000+00:00",
            "lotImages": [
                "62ac755a1c53e20ba76b4d1a"
            ],
            "characteristics": [
                {
                    "characteristicValue": 20.2,
                    "name": "Общая площадь",
                    "code": "totalAreaRealty",
                    "unit": {
                        "code": "081",
                        "name": "Квадратный метр общей площади",
                        "symbol": "м^2 общ. пл"
                    },
                    "type": "Decimal"
                },
                {
                    "name": "Общие сведения об ограничениях и обременениях ",
                    "code": "restrictionsEncumbrances",
                    "type": "Text(500)"
                },
                {
                    "name": "Вид ограничений и обременений",
                    "code": "typeRestrictionsEncumbrances",
                    "type": "Text(100)"
                },
                {
                    "name": "Кадастровая стоимость ",
                    "code": "cadastralValue",
                    "type": "Money"
                },
                {
                    "name": "Назначение нежилого помещения",
                    "code": "typeNolivingQuarters",
                    "type": "Text(500)"
                },
                {
                    "characteristicValue": "21:02:010905:1073",
                    "name": "Кадастровый номер объекта недвижимости (здания, сооружения), в пределах которого расположено помещение",
                    "code": "cadastralNumberObjectRealty",
                    "type": "Text(20)"
                },
                {
                    "name": "Расположение в пределах объекта недвижимости (этажа, части этажа, нескольких этажей)",
                    "code": "locationObjectRealty",
                    "type": "Text(100)"
                },
                {
                    "characteristicValue": "21:02:010905:1073",
                    "name": "Кадастровый номер",
                    "code": "cadastralNumberRealty",
                    "type": "Text(20)"
                },
                {
                    "name": "Год ввода в эксплуатацию",
                    "code": "yearCommissioning",
                    "type": "Text(20)"
                }
            ],
            "currencyCode": "643",
            "etpCode": "ETP_TEKTORG",
            "subjectRFCode": "21",
            "category": {
                "code": "11",
                "name": "Нежилые помещения"
            },
            "createDate": "2022-06-17T08:58:04.775+00:00",
            "timeZoneName": "МСК",
            "timezoneOffset": "180",
            "hasAppeals": false,
            "isStopped": false
        },
        {
            "id": "21000025550000000031_19",
            "lotStatus": "APPLICATIONS_SUBMISSION",
            "biddType": {
                "code": "229FZ",
                "name": "Реализация имущества должников"
            },
            "biddForm": {
                "code": "EA",
                "name": "Электронный аукцион"
            },
            "lotName": "1/2 доля в праве общей долевой собственности на нежилое помещение (кладовая), площадью 2,50 кв. м, расположенное по адресу: Чувашская Республика, г. Чебоксары, проспект Тракторостроителей, д. 34, корпус 1, хозяйственная кладовая № 19, кадастровый номер 21:01:030407:7173",
            "lotDescription": "1/2 доля в праве общей долевой собственности на нежилое помещение (кладовая), площадью 2,50 кв. м, расположенное по адресу: Чувашская Республика, г. Чебоксары, проспект Тракторостроителей, д. 34, корпус 1, хозяйственная кладовая № 19, кадастровый номер 21:01:030407:7173",
            "priceMin": 30000.0,
            "biddEndTime": "2022-07-13T14:00:00.000+00:00",
            "lotImages": [
                "62ac79a11c53e20ba76b5017"
            ],
            "characteristics": [
                {
                    "characteristicValue": 2.5,
                    "name": "Общая площадь",
                    "code": "totalAreaRealty",
                    "unit": {
                        "code": "081",
                        "name": "Квадратный метр общей площади",
                        "symbol": "м^2 общ. пл"
                    },
                    "type": "Decimal"
                },
                {
                    "name": "Общие сведения об ограничениях и обременениях ",
                    "code": "restrictionsEncumbrances",
                    "type": "Text(500)"
                },
                {
                    "name": "Вид ограничений и обременений",
                    "code": "typeRestrictionsEncumbrances",
                    "type": "Text(100)"
                },
                {
                    "name": "Кадастровая стоимость ",
                    "code": "cadastralValue",
                    "type": "Money"
                },
                {
                    "name": "Назначение нежилого помещения",
                    "code": "typeNolivingQuarters",
                    "type": "Text(500)"
                },
                {
                    "characteristicValue": "21:01:030407:7173",
                    "name": "Кадастровый номер объекта недвижимости (здания, сооружения), в пределах которого расположено помещение",
                    "code": "cadastralNumberObjectRealty",
                    "type": "Text(20)"
                },
                {
                    "name": "Расположение в пределах объекта недвижимости (этажа, части этажа, нескольких этажей)",
                    "code": "locationObjectRealty",
                    "type": "Text(100)"
                },
                {
                    "characteristicValue": "21:01:030407:7173",
                    "name": "Кадастровый номер",
                    "code": "cadastralNumberRealty",
                    "type": "Text(20)"
                },
                {
                    "name": "Год ввода в эксплуатацию",
                    "code": "yearCommissioning",
                    "type": "Text(20)"
                }
            ],
            "currencyCode": "643",
            "etpCode": "ETP_TEKTORG",
            "subjectRFCode": "21",
            "category": {
                "code": "11",
                "name": "Нежилые помещения"
            },
            "createDate": "2022-06-17T08:58:04.775+00:00",
            "timeZoneName": "МСК",
            "timezoneOffset": "180",
            "hasAppeals": false,
            "isStopped": false
        },
        {
            "id": "21000016520000000003_1",
            "lotStatus": "APPLICATIONS_SUBMISSION",
            "biddType": {
                "code": "178FZ",
                "name": "Продажа (приватизация) государственного и муниципального имущества"
            },
            "biddForm": {
                "code": "EA",
                "name": "Электронный аукцион"
            },
            "lotName": "Помещение площадью 397,8 (триста девяносто семь целых восемь десятых) кв.м, назначение: нежилое; наименование: нежилое помещение; номер, тип этажа, на котором расположено помещение: этаж № 2; адрес: Пензенская область, г. Пенза, Октябрьский район, Пятый Виноградный проезд, д. 18; кадастровый номер 58:29:1007005:5650.",
            "lotDescription": "Помещение площадью 397,8 (триста девяносто семь целых восемь десятых) кв.м, назначение: нежилое; наименование: нежилое помещение; номер, тип этажа, на котором расположено помещение: этаж № 2; адрес: Пензенская область, г. Пенза, Октябрьский район, Пятый Виноградный проезд, д. 18; кадастровый номер 58:29:1007005:5650.",
            "priceMin": 8964840.0,
            "biddEndTime": "2022-07-18T20:00:00.000+00:00",
            "lotImages": [
                "62b070e1c2b91d60c20a260a",
                "62b0712bc7d464240973994e",
                "62b07189c7d4642409739980",
                "62b16bdf18e2e37fdc3189b3"
            ],
            "characteristics": [
                {
                    "characteristicValue": 397.8,
                    "name": "Общая площадь",
                    "code": "totalAreaRealty",
                    "unit": {
                        "code": "081",
                        "name": "Квадратный метр общей площади",
                        "symbol": "м^2 общ. пл"
                    },
                    "type": "Decimal"
                },
                {
                    "name": "Общие сведения об ограничениях и обременениях ",
                    "code": "restrictionsEncumbrances",
                    "type": "Text(500)"
                },
                {
                    "name": "Вид ограничений и обременений",
                    "code": "typeRestrictionsEncumbrances",
                    "type": "Text(100)"
                },
                {
                    "characteristicValue": 5481314.05,
                    "name": "Кадастровая стоимость ",
                    "code": "cadastralValue",
                    "type": "Money"
                },
                {
                    "characteristicValue": "нежилое",
                    "name": "Назначение нежилого помещения",
                    "code": "typeNolivingQuarters",
                    "type": "Text(500)"
                },
                {
                    "name": "Кадастровый номер объекта недвижимости (здания, сооружения), в пределах которого расположено помещение",
                    "code": "cadastralNumberObjectRealty",
                    "type": "Text(20)"
                },
                {
                    "characteristicValue": "2 этаж",
                    "name": "Расположение в пределах объекта недвижимости (этажа, части этажа, нескольких этажей)",
                    "code": "locationObjectRealty",
                    "type": "Text(100)"
                },
                {
                    "characteristicValue": "58:29:1007005:5650",
                    "name": "Кадастровый номер",
                    "code": "cadastralNumberRealty",
                    "type": "Text(20)"
                },
                {
                    "name": "Год ввода в эксплуатацию",
                    "code": "yearCommissioning",
                    "type": "Text(20)"
                }
            ],
            "currencyCode": "643",
            "etpCode": "ETP_EETP",
            "subjectRFCode": "58",
            "category": {
                "code": "11",
                "name": "Нежилые помещения"
            },
            "createDate": "2022-06-20T07:17:53.534+00:00",
            "timeZoneName": "МСК",
            "timezoneOffset": "180",
            "hasAppeals": false,
            "isStopped": false
        },
        {
            "id": "22000019850000000011_1",
            "lotStatus": "APPLICATIONS_SUBMISSION",
            "biddType": {
                "code": "178FZ",
                "name": "Продажа (приватизация) государственного и муниципального имущества"
            },
            "biddForm": {
                "code": "EA",
                "name": "Электронный аукцион"
            },
            "lotName": "Нежилое помещение, помещение 2б, расположенное на первом этаже двухэтажного кир-пичного нежилого здания, площадь ОКС’а 117,20 кв.м., кадастровый №21:19:170103:2962,Нежилое помещение, помещение 2в, расположенное на первом и втором этажах двухэтажного кирпичного нежилого здания, площадь ОКС’а 77,20 кв.м., кадастровый №21:19:170103:2964,Нежилое помещение, помещение 2г, расположенное на втором этаже двухэтажного кирпичного нежилого здания, площадь ОКС’а 279,30 кв.м., кадастровый №21:19:170103:2963",
            "lotDescription": "3 нежилых помещения в здании",
            "priceMin": 2050647.0,
            "biddEndTime": "2022-07-17T17:00:00.000+00:00",
            "lotImages": [
                "62b0a060c7d464240973a776",
                "62b0a0601c53e20ba76bc5b6",
                "62b0a0601c53e20ba76bc5c2",
                "62b0a05f1c53e20ba76bc5a8",
                "62b0a065c7d464240973a783",
                "62b0a0651c53e20ba76bc5ce",
                "62b0a070c7d464240973a78d",
                "62b0a070c2b91d60c20a3447",
                "62b0a07118e2e37fdc317332",
                "62b0a07018e2e37fdc31732d"
            ],
            "characteristics": [
                {
                    "characteristicValue": 473.7,
                    "name": "Общая площадь",
                    "code": "totalAreaRealty",
                    "unit": {
                        "code": "081",
                        "name": "Квадратный метр общей площади",
                        "symbol": "м^2 общ. пл"
                    },
                    "type": "Decimal"
                },
                {
                    "characteristicValue": "не установлено",
                    "name": "Общие сведения об ограничениях и обременениях ",
                    "code": "restrictionsEncumbrances",
                    "type": "Text(500)"
                },
                {
                    "name": "Вид ограничений и обременений",
                    "code": "typeRestrictionsEncumbrances",
                    "type": "Text(100)"
                },
                {
                    "name": "Кадастровая стоимость ",
                    "code": "cadastralValue",
                    "type": "Money"
                },
                {
                    "name": "Назначение нежилого помещения",
                    "code": "typeNolivingQuarters",
                    "type": "Text(500)"
                },
                {
                    "name": "Кадастровый номер объекта недвижимости (здания, сооружения), в пределах которого расположено помещение",
                    "code": "cadastralNumberObjectRealty",
                    "type": "Text(20)"
                },
                {
                    "characteristicValue": "1-2",
                    "name": "Расположение в пределах объекта недвижимости (этажа, части этажа, нескольких этажей)",
                    "code": "locationObjectRealty",
                    "type": "Text(100)"
                },
                {
                    "name": "Кадастровый номер",
                    "code": "cadastralNumberRealty",
                    "type": "Text(20)"
                },
                {
                    "name": "Год ввода в эксплуатацию",
                    "code": "yearCommissioning",
                    "type": "Text(20)"
                }
            ],
            "currencyCode": "643",
            "etpCode": "ETP_MMVB",
            "subjectRFCode": "21",
            "category": {
                "code": "11",
                "name": "Нежилые помещения"
            },
            "createDate": "2022-06-20T16:07:48.308+00:00",
            "timeZoneName": "МСК",
            "timezoneOffset": "180",
            "hasAppeals": false,
            "isStopped": false
        },
        {
            "id": "22000019850000000010_1",
            "lotStatus": "APPLICATIONS_SUBMISSION",
            "biddType": {
                "code": "178FZ",
                "name": "Продажа (приватизация) государственного и муниципального имущества"
            },
            "biddForm": {
                "code": "EA",
                "name": "Электронный аукцион"
            },
            "lotName": "Нежилое помещение, назначение: нежилое, количество этажей - 1, площадь - 237,4 кв. м, инвентарный N Р19/450-3-н, расположенное по адресу: Чувашская Республика - Чувашия, р-н Урмарский, д. Саруй, ул. Молодежная, д. 2а, пом. 2, кадастровый номер 21:19:110301:628",
            "lotDescription": "нежилое помещение общей площадью 237,4 кв.м.",
            "priceMin": 374617.2,
            "biddEndTime": "2022-07-17T17:00:00.000+00:00",
            "lotImages": [
                "62b095efc7d464240973a5bb",
                "62b095efc7d464240973a5c8",
                "62b095fe18e2e37fdc3170dd",
                "62b095ffc2b91d60c20a31d8",
                "62b095ffc7d464240973a5d1",
                "62b095ffc2b91d60c20a31cb",
                "62b09610c2b91d60c20a31ed",
                "62b096101c53e20ba76bc395",
                "62b0960ec7d464240973a5e1",
                "62b09610c2b91d60c20a31eb",
                "62b09610c7d464240973a5ee"
            ],
            "characteristics": [
                {
                    "characteristicValue": 237.4,
                    "name": "Общая площадь",
                    "code": "totalAreaRealty",
                    "unit": {
                        "code": "081",
                        "name": "Квадратный метр общей площади",
                        "symbol": "м^2 общ. пл"
                    },
                    "type": "Decimal"
                },
                {
                    "characteristicValue": "не установлено",
                    "name": "Общие сведения об ограничениях и обременениях ",
                    "code": "restrictionsEncumbrances",
                    "type": "Text(500)"
                },
                {
                    "name": "Вид ограничений и обременений",
                    "code": "typeRestrictionsEncumbrances",
                    "type": "Text(100)"
                },
                {
                    "name": "Кадастровая стоимость ",
                    "code": "cadastralValue",
                    "type": "Money"
                },
                {
                    "characteristicValue": "нежилое помещение",
                    "name": "Назначение нежилого помещения",
                    "code": "typeNolivingQuarters",
                    "type": "Text(500)"
                },
                {
                    "characteristicValue": "21:19:110301:628",
                    "name": "Кадастровый номер объекта недвижимости (здания, сооружения), в пределах которого расположено помещение",
                    "code": "cadastralNumberObjectRealty",
                    "type": "Text(20)"
                },
                {
                    "characteristicValue": "1",
                    "name": "Расположение в пределах объекта недвижимости (этажа, части этажа, нескольких этажей)",
                    "code": "locationObjectRealty",
                    "type": "Text(100)"
                },
                {
                    "name": "Кадастровый номер",
                    "code": "cadastralNumberRealty",
                    "type": "Text(20)"
                },
                {
                    "name": "Год ввода в эксплуатацию",
                    "code": "yearCommissioning",
                    "type": "Text(20)"
                }
            ],
            "currencyCode": "643",
            "etpCode": "ETP_MMVB",
            "subjectRFCode": "21",
            "category": {
                "code": "11",
                "name": "Нежилые помещения"
            },
            "createDate": "2022-06-20T15:50:39.516+00:00",
            "timeZoneName": "МСК",
            "timezoneOffset": "180",
            "hasAppeals": false,
            "isStopped": false
        },
        {
            "id": "21000034750000000010_1",
            "lotStatus": "APPLICATIONS_SUBMISSION",
            "biddType": {
                "code": "178FZ",
                "name": "Продажа (приватизация) государственного и муниципального имущества"
            },
            "biddForm": {
                "code": "EK",
                "name": "Электронный конкурс"
            },
            "lotName": "Нежилые помещения подвала, общей площадью 159,8 кв. м, расположенные в здании лит. «А» по адресу: Республика Крым, г. Симферополь, ул. Одесская/ просп. Кирова, д. 2/21, являющиеся частью объекта культурного наследия регионального значения «Дом купца Х.К. Чирахова, конец XIX века», включенного в Перечень объектов культурного наследия регионального значения, расположенных на территории Республики Крым, в соответствии с постановлением Совета министров Республики Крым от 20.12.2016 № 627",
            "lotDescription": "Лот №1: недвижимое имущество, находящееся в государственной собственности Республики Крым, – нежилые помещения подвала, общей площадью 159,8 кв. м, расположенные в здании лит. «А» по адресу: Республика Крым, г. Симферополь, ул. Одесская/ просп. Кирова, д. 2/21 (далее – Объект приватизации), а именно:- нежилое помещение (подвал) площадью 10,5 кв. м, кадастровый номер 90:22:010302:1478;- нежилое помещение (подвал) площадью 36,0 кв. м, кадастровый номер 90:22:010302:1476;- нежилое помещение (подвал) площадью 13,2 кв. м, кадастровый номер 90:22:010302:1477;- нежилое помещение (подвал) площадью 100,1 кв. м, кадастровый номер 90:22:010302:1473.Объект приватизации является частью объекта культурного наследия регионального значения «Дом купца Х.К. Чирахова, конец XIX века», включенного в Перечень объектов культурного наследия регионального значения Республики Крым в соответствии с постановлением Совета министров Республики Крым от 20.12.2016 № 627.",
            "priceMin": 5435157.4,
            "biddEndTime": "2022-07-25T15:00:00.000+00:00",
            "lotImages": [
                "628f8a28b29fef5f7395696a"
            ],
            "characteristics": [
                {
                    "characteristicValue": 159.8,
                    "name": "Общая площадь",
                    "code": "totalAreaRealty",
                    "unit": {
                        "code": "081",
                        "name": "Квадратный метр общей площади",
                        "symbol": "м^2 общ. пл"
                    },
                    "type": "Decimal"
                },
                {
                    "characteristicValue": "Объект приватизации (нежилые помещения) является частью объекта культурного наследия регионального значения «Дом купца Х.К. Чирахова, конец XIX века», включенного в Перечень объектов культурного наследия регионального значения в соответствии с постановлением Совета министров Республики Крым от 20.12.2016 № 627 «Об отнесении объектов культурного наследия к объектам культурного наследия регионального значения и выявленным объектам культурного наследия» и обременен охранным обязательством ",
                    "name": "Общие сведения об ограничениях и обременениях ",
                    "code": "restrictionsEncumbrances",
                    "type": "Text(500)"
                },
                {
                    "characteristicValue": "охранное обязательство собственника объекта культурного наследия регионального значения",
                    "name": "Вид ограничений и обременений",
                    "code": "typeRestrictionsEncumbrances",
                    "type": "Text(100)"
                },
                {
                    "characteristicValue": 859550.18,
                    "name": "Кадастровая стоимость ",
                    "code": "cadastralValue",
                    "type": "Money"
                },
                {
                    "characteristicValue": "нежилые помещения подвала",
                    "name": "Назначение нежилого помещения",
                    "code": "typeNolivingQuarters",
                    "type": "Text(500)"
                },
                {
                    "characteristicValue": "90:22:010302:666",
                    "name": "Кадастровый номер объекта недвижимости (здания, сооружения), в пределах которого расположено помещение",
                    "code": "cadastralNumberObjectRealty",
                    "type": "Text(20)"
                },
                {
                    "characteristicValue": "подвал",
                    "name": "Расположение в пределах объекта недвижимости (этажа, части этажа, нескольких этажей)",
                    "code": "locationObjectRealty",
                    "type": "Text(100)"
                },
                {
                    "characteristicValue": "90:22:010302:1473",
                    "name": "Кадастровый номер",
                    "code": "cadastralNumberRealty",
                    "type": "Text(20)"
                },
                {
                    "name": "Год ввода в эксплуатацию",
                    "code": "yearCommissioning",
                    "type": "Text(20)"
                }
            ],
            "etpCode": "ETP_EETP",
            "subjectRFCode": "91",
            "category": {
                "code": "11",
                "name": "Нежилые помещения"
            },
            "createDate": "2022-05-26T14:21:09.146+00:00",
            "timeZoneName": "МСК",
            "timezoneOffset": "180",
            "hasAppeals": false,
            "isStopped": false
        }
    ],
    "pageable": {
        "sort": {
            "empty": false,
            "sorted": true,
            "unsorted": false
        },
        "offset": 25,
        "pageNumber": 1,
        "pageSize": 25,
        "paged": true,
        "unpaged": false
    },
    "categoryFacet": [
        {
            "_id": "11",
            "count": 31
        }
    ],
    "last": true,
    "totalPages": 2,
    "totalElements": 31,
    "size": 25,
    "number": 1,
    "sort": {
        "empty": false,
        "sorted": true,
        "unsorted": false
    },
    "first": false,
    "numberOfElements": 6,
    "empty": false
}