{
    "content": [
        {
            "id": "21000004710000000625_1",
            "lotStatus": "APPLICATIONS_SUBMISSION",
            "biddType": {
                "code": "178FZ",
                "name": "Продажа (приватизация) государственного и муниципального имущества"
            },
            "biddForm": {
                "code": "EA",
                "name": "Электронный аукцион"
            },
            "lotName": "Продажа нежилого помещения (машино-место) 16,0 кв.м. в г.о. Домодедово",
            "lotDescription": "Продажа нежилого помещения (машино-место) 16,0 кв.м. в г.о. Домодедово",
            "priceMin": 268080.0,
            "biddEndTime": "2022-08-08T15:00:00.000+00:00",
            "lotImages": [
                "6231d3f59eb3257e509f92f8",
                "6231d3f89eb3257e509f92fa",
                "6231d3fc9eb3257e509f9301"
            ],
            "characteristics": [
                {
                    "characteristicValue": 16.0,
                    "name": "Общая площадь",
                    "code": "totalAreaRealty",
                    "unit": {
                        "code": "081",
                        "name": "Квадратный метр общей площади",
                        "symbol": "м^2 общ. пл"
                    },
                    "type": "Decimal"
                },
                {
                    "characteristicValue": "В соответствии с Информационным сообщением",
                    "name": "Общие сведения об ограничениях и обременениях ",
                    "code": "restrictionsEncumbrances",
                    "type": "Text(500)"
                },
                {
                    "name": "Вид ограничений и обременений",
                    "code": "typeRestrictionsEncumbrances",
                    "type": "Text(100)"
                },
                {
                    "name": "Кадастровая стоимость ",
                    "code": "cadastralValue",
                    "type": "Money"
                },
                {
                    "name": "Назначение нежилого помещения",
                    "code": "typeNolivingQuarters",
                    "type": "Text(500)"
                },
                {
                    "name": "Кадастровый номер объекта недвижимости (здания, сооружения), в пределах которого расположено помещение",
                    "code": "cadastralNumberObjectRealty",
                    "type": "Text(20)"
                },
                {
                    "characteristicValue": "Этаж № 1",
                    "name": "Расположение в пределах объекта недвижимости (этажа, части этажа, нескольких этажей)",
                    "code": "locationObjectRealty",
                    "type": "Text(100)"
                },
                {
                    "characteristicValue": "50:28:0010244:25",
                    "name": "Кадастровый номер",
                    "code": "cadastralNumberRealty",
                    "type": "Text(20)"
                },
                {
                    "name": "Год ввода в эксплуатацию",
                    "code": "yearCommissioning",
                    "type": "Text(20)"
                }
            ],
            "currencyCode": "643",
            "etpCode": "ETP_RTS",
            "subjectRFCode": "50",
            "category": {
                "code": "11",
                "name": "Нежилые помещения"
            },
            "createDate": "2022-06-24T13:19:36.218+00:00",
            "timeZoneName": "МСК",
            "timezoneOffset": "180",
            "hasAppeals": false,
            "isStopped": false
        }
    ],
    "pageable": {
        "sort": {
            "empty": false,
            "sorted": true,
            "unsorted": false
        },
        "offset": 250,
        "pageNumber": 10,
        "pageSize": 25,
        "unpaged": false,
        "paged": true
    },
    "categoryFacet": [
        {
            "_id": "11",
            "count": 251
        }
    ],
    "last": true,
    "totalPages": 11,
    "totalElements": 251,
    "size": 25,
    "number": 10,
    "sort": {
        "empty": false,
        "sorted": true,
        "unsorted": false
    },
    "first": false,
    "numberOfElements": 1,
    "empty": false
}